{
    "KPlugin": {
        "Description": "Adds an inline git-blame preview at the end of the line",
        "Description[az]": "Git blame verilənlərinin daxili görünüşünü sətirin sonuna əlavə edir",
        "Description[bg]": "Добавя вграден преглед на git-blame в края на реда",
        "Description[ca@valencia]": "Afig una vista prèvia inclosa de «git-blame» al final de la línia",
        "Description[ca]": "Afegeix una vista prèvia inclosa de «git-blame» al final de la línia",
        "Description[de]": "Zeigt eine Vorschau von „git-blame“ am Zeilenende an",
        "Description[el]": "Προσθέτει μια εμβόλιμη προεπισκόπηση git-blame στο τέλος της γραμμής",
        "Description[en_GB]": "Adds an inline git-blame preview at the end of the line",
        "Description[eo]": "Aldonas enlinian antaŭrigardon de git-blame ĉe la fino de la linio",
        "Description[es]": "Añade una vista previa de Git blame al final de la línea",
        "Description[eu]": "Lerro barruko «git-blame» aurreikuspegi bat gehitzen du lerro amaieran",
        "Description[fi]": "Lisää upotetun git-blame-esikatselun rivin loppuun",
        "Description[fr]": "Ajoute un aperçu intégré de « git-blame » en fin de la ligne",
        "Description[gl]": "Engade unha vista previa de git-blame ao final de cada liña.",
        "Description[hu]": "Beágyazott git-blame előnézet hozzáadása a sorok végéhez",
        "Description[ia]": "Adde un vista preliminar integrate de git-blame al fin de linea",
        "Description[ie]": "Monstrar un autor de git (blame) al fin de lineas",
        "Description[it]": "Aggiunge un'anteprima in linea di git-blame alla fine della riga",
        "Description[ka]": "ხაზის ბოლოში git-blame-ის მინიატურის დამატება",
        "Description[ko]": "줄 내에서 줄 끝에 git-blame 미리 보기 표시",
        "Description[nl]": "Voegt een inline git-blame voorbeeldweergave aan het eind van de regel",
        "Description[pl]": "Dodaje podgląd git-blame w wierszu, na jego końcu",
        "Description[pt]": "Adiciona uma antevisão incorporada do 'git-blame' no fim da linha",
        "Description[ru]": "Добавление встроенного предварительного просмотра git-blame в конце строки",
        "Description[sk]": "Na koniec riadku pridá vložený náhľad git-blame",
        "Description[sl]": "Doda znotraj vrstični predogled git-blame na koncu vrstice",
        "Description[sv]": "Lägger till en förhandsgranskning från git klandra i slutet på raden",
        "Description[tr]": "Satır sonuna bir satır içi git-blame önizleyicisi ekler",
        "Description[uk]": "Додає вбудований перегляд даних git-blame наприкінці рядка",
        "Description[vi]": "Thêm một phần xem thử git-blame tại chỗ ở cuối dòng",
        "Description[x-test]": "xxAdds an inline git-blame preview at the end of the linexx",
        "Description[zh_CN]": "在行尾添加行内 git-blame 预览",
        "Name": "Git Blame",
        "Name[az]": "Git Blame",
        "Name[bg]": "Git Blame",
        "Name[ca@valencia]": "Git Blame",
        "Name[ca]": "Git Blame",
        "Name[cs]": "Git Blame",
        "Name[de]": "Git Blame",
        "Name[el]": "Git Blame",
        "Name[en_GB]": "Git Blame",
        "Name[eo]": "Git Blame",
        "Name[es]": "Git Blame",
        "Name[eu]": "Git Blame",
        "Name[fi]": "Git Blame",
        "Name[fr]": "Git Blame",
        "Name[gl]": "Git Blame",
        "Name[hu]": "Git gyanúsítás",
        "Name[ia]": "Git Blame",
        "Name[ie]": "Git Blame",
        "Name[it]": "Git Blame",
        "Name[ka]": "Git Blame",
        "Name[ko]": "Git Blame",
        "Name[my]": "ဂစ် ဘလိမ်း",
        "Name[nl]": "Git-Blame",
        "Name[pl]": "Git Blame",
        "Name[pt]": "Anotações do Git",
        "Name[ru]": "Git Blame",
        "Name[sk]": "Git Blame",
        "Name[sl]": "Git Blame",
        "Name[sv]": "Git klandra",
        "Name[tr]": "Git Blame",
        "Name[uk]": "Git Blame",
        "Name[vi]": "Git Blame",
        "Name[x-test]": "xxGit Blamexx",
        "Name[zh_CN]": "Git Blame",
        "ServiceTypes": [
            "KTextEditor/Plugin"
        ]
    }
}
