{
    "KPlugin": {
        "Description": "C/C++ Backtrace navigation tool view",
        "Description[az]": "C/C++ geri izləmə naviqasiya aləti görünüşü",
        "Description[bg]": "Изглед с инструменти за навигация на обратно проследяване на C/C++",
        "Description[ca@valencia]": "Vista d'eina del navegador per a la traça inversa de C/C++",
        "Description[ca]": "Vista d'eina del navegador per a la traça inversa de C/C++",
        "Description[cs]": "Nástroj pro procházení backtrace v C/C++",
        "Description[de]": "Ansicht zur Navigation in C/C++ Backtraces",
        "Description[el]": "Προβολή εργαλείου πλοήγησης για ανίχνευση προς τα πίσω σε C/C++",
        "Description[en_GB]": "C/C++ Backtrace navigation tool view",
        "Description[eo]": "Perspektivo de C/C++ retrospura navigilo",
        "Description[es]": "Vista de la herramienta de navegación por trazas inversas de C/C++",
        "Description[eu]": "C/C++ aztarnetan nabigatzeko tresnaren ikuspegia",
        "Description[fi]": "C/C++-jäljitysnavigointityökalunäkymä",
        "Description[fr]": "Vue des outils de navigation pour les piles d'appels C / C++",
        "Description[gl]": "Vista da ferramenta de navegación por trazados inversos de C e C++.",
        "Description[hu]": "C/C++ visszakövetési navigációs eszköznézet",
        "Description[ia]": "Vista de instrumento de navigation de retraciamento in C/C++",
        "Description[ie]": "Utensile de navigation de backtraces de C/C++",
        "Description[it]": "Vista dello strumento di navigazione di backtrace C/C++",
        "Description[ka]": "C/C++ უკუტრეისის ნავიგაციის ხელსაწყოს ხედი",
        "Description[ko]": "C/C++ 역추적 탐색기 도구 보기",
        "Description[nl]": "C/C++ Backtrace hulpmiddel voor navigatieweergave",
        "Description[pl]": "Widok narzędzia nawigacji śladu C/C++",
        "Description[pt]": "Ferramenta de navegação de registos de chamadas de C/C++",
        "Description[ru]": "Панель навигации по стеку вызовов C/C++",
        "Description[sk]": "Zobrazenie navigačného nástroja C/C++ Backtrace",
        "Description[sl]": "Orodje za navigacijo pogleda nazaj C/C++",
        "Description[sv]": "C/C++ navigeringsverktyg med vy av bakåtspårning",
        "Description[tr]": "C/C++ Geri iz dolaşım araç görünümü",
        "Description[uk]": "Панель навігації зворотним трасуванням C++",
        "Description[vi]": "Khung xem công cụ \"điều hướng vết ngăn xếp C/C++\"",
        "Description[x-test]": "xxC/C++ Backtrace navigation tool viewxx",
        "Description[zh_CN]": "C/C++ 回溯导航工具视图",
        "Name": "Backtrace Browser",
        "Name[ar]": "متصفّح التّتبّع الخلفيّ",
        "Name[az]": "Geri izləmə bələdçisi",
        "Name[bg]": "Проследяване на браузер",
        "Name[ca@valencia]": "Navegador de traça inversa",
        "Name[ca]": "Navegador de traça inversa",
        "Name[cs]": "Prohlížeč backtrace",
        "Name[de]": "Backtrace-Browser",
        "Name[el]": "Περιηγητής ανίχνευσης προς τα πίσω",
        "Name[en_GB]": "Backtrace Browser",
        "Name[eo]": "Backtrace Foliumilo",
        "Name[es]": "Explorador de trazas inversas",
        "Name[eu]": "Aztarna arakatzailea",
        "Name[fi]": "Jäljitysselain",
        "Name[fr]": "Explorateur de piles d'appels",
        "Name[gl]": "Navegador de trazados inversos",
        "Name[hu]": "Visszakövetési böngésző",
        "Name[ia]": "Backtrace Browser (Navigator de retro tracia)",
        "Name[ie]": "Explorator de backtraces",
        "Name[it]": "Navigatore di backtrace",
        "Name[ka]": "გამოძახებების სტეკის დათვალიერება",
        "Name[ko]": "역추적 탐색기",
        "Name[nl]": "Backtrace browser",
        "Name[pl]": "Przeglądarka śladu",
        "Name[pt]": "Navegador de Registos de Chamadas",
        "Name[pt_BR]": "Navegador de backtrace",
        "Name[ru]": "Просмотр стека вызовов",
        "Name[sk]": "Prehliadač Backtrace",
        "Name[sl]": "Brskalnik sledenja nazaj",
        "Name[sv]": "Bläddring i bakåtspårning",
        "Name[tr]": "Geri İz Tarayıcısı",
        "Name[uk]": "Переглядач зворотного трасування",
        "Name[vi]": "Trình duyệt vết ngăn xếp",
        "Name[x-test]": "xxBacktrace Browserxx",
        "Name[zh_CN]": "回溯跟踪浏览器",
        "ServiceTypes": [
            "KTextEditor/Plugin"
        ]
    },
    "author": "Dominik Haumann, dhaumann@kde.org"
}
