{
    "KPlugin": {
        "Description": "Extract and show reference symbols from source",
        "Description[az]": "Mənbə kodundan C/C++ identifikatorlarını çıxarır və göstərir",
        "Description[bg]": "Извличане и показване на референтни символи от изходния код",
        "Description[ca@valencia]": "Extrau i visualitza símbols de referència des del codi font",
        "Description[ca]": "Extreu i visualitza símbols de referència des del codi font",
        "Description[cs]": "Rozbalit a ukázat referenční symboly ze zdroje",
        "Description[de]": "Referenzsymbole aus Quelldateien extrahieren und anzeigen",
        "Description[el]": "Εξαγωγή και εμφάνιση συμβόλων αναφοράς από τον πηγαίο κώδικα",
        "Description[en_GB]": "Extract and show reference symbols from source",
        "Description[eo]": "Ekstraktu kaj montru referencajn simbolojn el la fonto",
        "Description[es]": "Extraer y mostrar símbolos de referencia del código fuente",
        "Description[eu]": "Sorburutik erreferentziako ikurrak atera eta erakustea",
        "Description[fi]": "Etsi ja näytä viitesymbolit lähteestä",
        "Description[fr]": "Extrait et affiche les symboles de référence provenant d'un code source",
        "Description[gl]": "Extrae e amosa os símbolos a partir das fontes.",
        "Description[hu]": "Hivatkozás-szimbólumok kinyerése a forrásfájlokból és megjelenítés",
        "Description[ia]": "Extrahe e monstra symbolos de referentia ex fonte",
        "Description[ie]": "Extraer e monstrar simboles de code de fonte",
        "Description[it]": "Estrae e visualizza i simboli di riferimento dal codice sorgente",
        "Description[ka]": "მიმართვის სიმბოლოების კოდიდან გამოღება და ჩვენება",
        "Description[ko]": "소스 코드에서 디버그 참조 기호를 추출하고 표시하기",
        "Description[nl]": "Referentiesymbolen uit de broncode halen en tonen",
        "Description[pl]": "Wydobywa i pokazuje symbole odniesienia ze źródła",
        "Description[pt]": "Extraia e mostre símbolos de referência do código",
        "Description[ru]": "Извлечение идентификаторов из исходного кода и их показ",
        "Description[sk]": "Získanie a zobrazenie referenčných symbolov zo zdroja",
        "Description[sl]": "Izvleci in prikaži reference simbolov iz izvora",
        "Description[sv]": "Hämta och visa referenssymboler från källkod",
        "Description[tr]": "Kaynaktan başvuru sembollerini çıkarın ve gösterin",
        "Description[uk]": "Добування і показ символів з джерельного коду",
        "Description[vi]": "Trích xuất và hiển thị các kí hiệu tham chiếu từ mã nguồn",
        "Description[x-test]": "xxExtract and show reference symbols from sourcexx",
        "Description[zh_CN]": "从源代码中提取并显示引用符号",
        "Name": "Symbol Viewer",
        "Name[ar]": "عارض الرّموز",
        "Name[az]": "Simvol Görünüşü",
        "Name[bg]": "Преглед на символи",
        "Name[ca@valencia]": "Visor de símbols",
        "Name[ca]": "Visualitzador de símbols",
        "Name[cs]": "Prohlížeč symbolů",
        "Name[de]": "Symbolansicht",
        "Name[el]": "Προβολέας συμβόλων",
        "Name[en_GB]": "Symbol Viewer",
        "Name[eo]": "Simbolrigardilo",
        "Name[es]": "Visor de símbolos",
        "Name[eu]": "Ikurren ikustailea",
        "Name[fi]": "Symbolinäytin",
        "Name[fr]": "Afficheur de symboles",
        "Name[gl]": "Visor de símbolos",
        "Name[hu]": "Szimbólumnézegető",
        "Name[ia]": "Visor de symbolo",
        "Name[ie]": "Visor de simboles",
        "Name[it]": "Visore di simboli",
        "Name[ka]": "სიმბოლოს ნახვა",
        "Name[ko]": "기호 뷰어",
        "Name[my]": "သင်္ကေတ ကြည့်ရှုကိရိယာ",
        "Name[nl]": "Symboolviewer",
        "Name[pl]": "Przeglądarka symboli",
        "Name[pt]": "Visualizador de Símbolos",
        "Name[pt_BR]": "Visualizador de símbolos",
        "Name[ru]": "Просмотр идентификаторов",
        "Name[sk]": "Prehliadač znakov",
        "Name[sl]": "Pregledovalnik simbolov",
        "Name[sv]": "Symbolvisning",
        "Name[tr]": "Sembol Görüntüleyicisi",
        "Name[uk]": "Переглядач символів",
        "Name[vi]": "Trình xem kí hiệu",
        "Name[x-test]": "xxSymbol Viewerxx",
        "Name[zh_CN]": "符号查看器",
        "ServiceTypes": [
            "KTextEditor/Plugin"
        ]
    }
}
