{
    "KPlugin": {
        "Description": "View generated asm for C/C++ code",
        "Description[az]": "C/C++ kodu üçün yaradılmış asm göstərmək",
        "Description[bg]": "Преглед на генериран asm за C/C++ код",
        "Description[ca@valencia]": "Visualitza el codi ASM generat per a C/C++",
        "Description[ca]": "Visualitza el codi ASM generat per a C/C++",
        "Description[cs]": "Zobrazit vygenerovaná kód asm pro kód C/C++",
        "Description[de]": "Aus C/C++-Code generiertes ASM betrachten",
        "Description[el]": "Προβολή παραχθέντος asm για C/C++ κώδικα",
        "Description[en_GB]": "View generated asm for C/C++ code",
        "Description[eo]": "Rigardi generitan asm por C/C++-kodo",
        "Description[es]": "Ver ensamblador generado para el código C/C++",
        "Description[eu]": "Ikusi C/C++ koderako sortutako ASM",
        "Description[fi]": "Näytä C/C++-koodille luotu assembler",
        "Description[fr]": "Afficher le code assembleur pour le code C / C++",
        "Description[gl]": "Ver o asm xerado para código C/C++.",
        "Description[hu]": "C/C++ kódból generált assembly kód megtekintése",
        "Description[ia]": "Vista generava asm per codice C/C++",
        "Description[ie]": "Vider li generat asm por code C/C++",
        "Description[it]": "Visualizza l'asm generato per il codice C/C++",
        "Description[ka]": "C/C++ კოდისთვის გენერირებული ასემბლერის ჩვენება",
        "Description[ko]": "C/C++ 코드에서 생성된 어셈블리 표시",
        "Description[nl]": "Gegenereerde asm voor C/C++ code",
        "Description[pl]": "Zobacz wytworzony asm dla kodu C/C++",
        "Description[pt]": "Ver o ASM gerado do código em C/C++",
        "Description[ru]": "Просмотр сгенерированных данных сборки для кода C/C++",
        "Description[sk]": "Zobraziť vygenerovaný asm pre kód C/C++",
        "Description[sl]": "Pogled generirane asm za kodo C/C++",
        "Description[sv]": "Vy av genererade assembler för C/C++ kod",
        "Description[tr]": "C/C++ kodu için oluşturulmuş asm görüntüle",
        "Description[uk]": "Перегляд створеного коду асемблера для коду C/C++",
        "Description[vi]": "Xem hợp ngữ được sinh cho mã C/C++",
        "Description[x-test]": "xxView generated asm for C/C++ codexx",
        "Description[zh_CN]": "查看 C/C++ 代码生成的 asm",
        "Name": "Compiler Explorer",
        "Name[az]": "Kompliyator bələdçisi",
        "Name[bg]": "Преглед на компилатор",
        "Name[ca@valencia]": "Explorador de compiladors",
        "Name[ca]": "Explorador de compiladors",
        "Name[de]": "Compiler Explorer",
        "Name[el]": "Εξερευνητής μεταγλωττιστή",
        "Name[en_GB]": "Compiler Explorer",
        "Name[eo]": "Esploristo de Kompililo",
        "Name[es]": "Explorador del compilador",
        "Name[eu]": "Konpilatzaile esploratzailea",
        "Name[fi]": "Kääntäjäselain",
        "Name[fr]": "Explorateur de compilateur",
        "Name[gl]": "Explorador do compilador",
        "Name[hu]": "Fordítóböngésző",
        "Name[ia]": "Explrator de compilator (Compiler Explorer)",
        "Name[ie]": "Explorator de compilator",
        "Name[it]": "Esploratore del compilatore",
        "Name[ka]": "აგების ჩვენება",
        "Name[ko]": "컴파일러 탐색기",
        "Name[nl]": "Explorer van compiler",
        "Name[pl]": "Przeglądarka kompilatora",
        "Name[pt]": "Explorador de Compiladores",
        "Name[ru]": "Просмотр компиляции",
        "Name[sk]": "Prieskumník kompilátora",
        "Name[sl]": "Raziskovalec prevajalnika",
        "Name[sv]": "Kompilatorutforskare",
        "Name[tr]": "Derleyici Tarayıcısı",
        "Name[uk]": "Засіб аналізу компілятора",
        "Name[vi]": "Trình khảo sát trình biên dịch",
        "Name[x-test]": "xxCompiler Explorerxx",
        "Name[zh_CN]": "编译器浏览器",
        "ServiceTypes": [
            "KTextEditor/Plugin"
        ]
    }
}
